Tobacco Use and Parental Monitoring among American Indian Youth
…
Parental monitoring is a constructed variable which comprises nine items from the OYOF regarding parental knowledge of their adolescent’s activities and engagement in monitoring behaviors (e.g., My parent ask about happenings at school; I need permission to be out late on weekends). One item was reverse coded (i.e., I keep secrets from my parents about what I do in my free time). Parental monitoring level is the sum score of the nine items, which ranged from 9-45. In other words, higher sum scores means more parental monitoring for youths.

The ever smoked variable was dichotomized for analysis. Participants answered one question about having ever smoked cigarettes. We chose to dichotomize this variable since participants in this subset were on the low end of the typical age range to initiate tobacco use.

Analytic Approach

To answer the first research question, we ran a two-sample t-test in parental monitoring between AI and non-AI 15-year-old youths. To answer the second research question, we used logistic regression to examine the relation between parental monitoring and having ever smoked cigarettes. All analyses were completed using R Version 2023.03.1+446 (R Core Team 2023). The packages used for analysis were Tidyverse (Wickham et al. 2019), here (Müller 2020), rio (Chan et al. 2018), ggplot2 (Wickham 2016), missMethods(missMethods?), modelsummary (Arel-Bundock 2022), janitor (Firke 2023), gtsummary (Sjoberg et al. 2021), forcats (Wickham 2023), and sandwich (Zeileis, Köll, and Graham 2020).

Results

Data Cleaning

Descriptive Statistics

# A tibble: 847 × 6
# Groups:   startdate, enddate [847]
   startdate            enddate           sex   ever_smoked    AI parent_mon_sum
   <fct>                <fct>             <fct>       <dbl> <dbl>          <dbl>
 1 08-OCT-2018 10:23:59 08-OCT-2018 10:5… Male            0     0             36
 2 09-OCT-2018 09:31:10 09-OCT-2018 09:5… Male            1     1             22
 3 09-OCT-2018 11:13:55 09-OCT-2018 11:3… Male            0     1             43
 4 09-OCT-2018 13:52:42 09-OCT-2018 14:1… Male            1     1             24
 5 09-OCT-2018 13:53:38 09-OCT-2018 14:2… Male            1     1             30
 6 09-OCT-2018 13:57:55 09-OCT-2018 14:3… Male            1     1             19
 7 09-OCT-2018 13:54:19 09-OCT-2018 14:2… Fema…           0     1             33
 8 17-OCT-2018 08:08:54 17-OCT-2018 08:2… Male            0     0             38
 9 17-OCT-2018 08:08:51 17-OCT-2018 08:2… Male            0     0             34
10 17-OCT-2018 08:09:11 17-OCT-2018 08:2… Fema…           0     1             34
# ℹ 837 more rows
…
